^C:\USERS\ВЛАДИМИР\DOCUMENTS\VISUAL STUDIO 2012\PROJECTS\REPO\RECOGNITION\STDAFX.CPP
C:\USERS\Владимир\DOCUMENTS\VISUAL STUDIO 2012\PROJECTS\REPO\RECOGNITION\X64\RELEASE\RECOGNITION.PCH
C:\USERS\Владимир\DOCUMENTS\VISUAL STUDIO 2012\PROJECTS\REPO\RECOGNITION\X64\RELEASE\STDAFX.OBJ
C:\USERS\ВЛАДИМИР\DOCUMENTS\VISUAL STUDIO 2012\PROJECTS\REPO\RECOGNITION\X64\RELEASE\VC110.PDB
^C:\USERS\ВЛАДИМИР\DOCUMENTS\VISUAL STUDIO 2012\PROJECTS\REPO\RECOGNITION\ASSEMBLYINFO.CPP|C:\USERS\ВЛАДИМИР\DOCUMENTS\VISUAL STUDIO 2012\PROJECTS\REPO\RECOGNITION\RECOGNITION.CPP
C:\USERS\Владимир\DOCUMENTS\VISUAL STUDIO 2012\PROJECTS\REPO\RECOGNITION\X64\RELEASE\RECOGNITION.OBJ
C:\USERS\Владимир\DOCUMENTS\VISUAL STUDIO 2012\PROJECTS\REPO\RECOGNITION\X64\RELEASE\ASSEMBLYINFO.OBJ
^C:\USERS\ВЛАДИМИР\DOCUMENTS\VISUAL STUDIO 2012\PROJECTS\REPO\RECOGNITION\ASSEMBLYINFO.CPP
C:\USERS\ВЛАДИМИР\DOCUMENTS\VISUAL STUDIO 2012\PROJECTS\REPO\RECOGNITION\X64\RELEASE\VC110.PDB
^C:\USERS\ВЛАДИМИР\APPDATA\LOCAL\TEMP\.NETFRAMEWORK,VERSION=V4.5.ASSEMBLYATTRIBUTES.CPP
C:\USERS\Владимир\DOCUMENTS\VISUAL STUDIO 2012\PROJECTS\REPO\RECOGNITION\X64\RELEASE\.NETFRAMEWORK,VERSION=V4.5.ASSEMBLYATTRIBUTES.OBJ
C:\USERS\ВЛАДИМИР\DOCUMENTS\VISUAL STUDIO 2012\PROJECTS\REPO\RECOGNITION\X64\RELEASE\VC110.PDB
^C:\USERS\ВЛАДИМИР\DOCUMENTS\VISUAL STUDIO 2012\PROJECTS\REPO\RECOGNITION\RECOGNITION.CPP
C:\USERS\Владимир\DOCUMENTS\VISUAL STUDIO 2012\PROJECTS\REPO\RECOGNITION\X64\RELEASE\RECOGNITION.OBJ
C:\USERS\ВЛАДИМИР\DOCUMENTS\VISUAL STUDIO 2012\PROJECTS\REPO\RECOGNITION\X64\RELEASE\VC110.PDB
