^C:\USERS\ВЛАДИМИР\DOCUMENTS\VISUAL STUDIO 2012\PROJECTS\REPO\RECOGNITION\DEBUG\.NETFRAMEWORK,VERSION=V4.5.ASSEMBLYATTRIBUTES.OBJ|C:\USERS\ВЛАДИМИР\DOCUMENTS\VISUAL STUDIO 2012\PROJECTS\REPO\RECOGNITION\DEBUG\APP.RES|C:\USERS\ВЛАДИМИР\DOCUMENTS\VISUAL STUDIO 2012\PROJECTS\REPO\RECOGNITION\DEBUG\ASSEMBLYINFO.OBJ|C:\USERS\ВЛАДИМИР\DOCUMENTS\VISUAL STUDIO 2012\PROJECTS\REPO\RECOGNITION\DEBUG\RECOGNITION.OBJ|C:\USERS\ВЛАДИМИР\DOCUMENTS\VISUAL STUDIO 2012\PROJECTS\REPO\RECOGNITION\DEBUG\STDAFX.OBJ
C:\USERS\Владимир\DOCUMENTS\VISUAL STUDIO 2012\PROJECTS\REPO\DEBUG\RECOGNITION.ILK
C:\USERS\Владимир\DOCUMENTS\VISUAL STUDIO 2012\PROJECTS\REPO\DEBUG\RECOGNITION.EXE
C:\USERS\ВЛАДИМИР\DOCUMENTS\VISUAL STUDIO 2012\PROJECTS\REPO\DEBUG\RECOGNITION.PDB
