^C:\USERS\ВЛАДИМИР\DOCUMENTS\VISUAL STUDIO 2012\PROJECTS\REPO\RECOGNITION\APP.RC
C:\USERS\Владимир\DOCUMENTS\VISUAL STUDIO 2012\PROJECTS\REPO\RECOGNITION\RESOURCE.H
C:\USERS\Владимир\DOCUMENTS\VISUAL STUDIO 2012\PROJECTS\REPO\RECOGNITION\APP.ICO
